<svg style="width:24px;height:24px" viewBox="0 0 24 24" xmlns="http://www.w3.org/2000/svg">
  <path d="M 16.5 2.83 C 14.76 2.83 13.09 3.64 12 4.9 C 10.91 3.64 9.24 2.83 7.5 2.83 C 4.42 2.83 2 5.24 2 8.33 C 2 12.1 5.4 15.19 10.55 19.86 L 12 21.17 L 13.45 19.86 C 18.6 15.19 22 12.1 22 8.33 C 22 5.24 19.58 2.83 16.5 2.83"/>
  <path d="M 12 17.83 L 12 13.83 L 9 13.83 L 12 6.83 L 12 10.83 L 15 10.83" style="fill: rgb(255, 255, 255);"/>
</svg>