<svg viewBox="0 0 24 24" style="width:24px;height:24px" xmlns="http://www.w3.org/2000/svg">
  <path fill="currentColor" d="M19,19H5V8H19M16,1V3H8V1H6V3H5C3.89,3 3,3.89 3,5V19A2,2 0 0,0 5,21H19A2,2 0 0,0 21,19V5C21,3.89 20.1,3 19,3H18V1"/>
  <path d="M 11.3 9.994 L 12.57 9.994 C 13.323 9.994 13.7 10.344 13.7 11.044 L 13.7 16.444 C 13.7 17.151 13.323 17.504 12.57 17.504 L 11.34 17.504 C 10.587 17.504 10.21 17.151 10.21 16.444 L 10.21 15.164 L 11.29 15.164 L 11.29 16.284 C 11.29 16.424 11.313 16.517 11.36 16.564 C 11.4 16.604 11.497 16.624 11.65 16.624 L 12.26 16.624 C 12.407 16.624 12.5 16.604 12.54 16.564 C 12.587 16.517 12.61 16.424 12.61 16.284 L 12.61 14.434 L 11.3 14.434 C 10.56 14.434 10.19 14.077 10.19 13.364 L 10.19 11.044 C 10.19 10.344 10.56 9.994 11.3 9.994 Z M 11.63 13.584 L 12.61 13.584 L 12.61 11.214 C 12.61 11.074 12.587 10.981 12.54 10.934 C 12.5 10.887 12.407 10.864 12.26 10.864 L 11.63 10.864 C 11.483 10.864 11.387 10.887 11.34 10.934 C 11.293 10.981 11.27 11.074 11.27 11.214 L 11.27 13.234 C 11.27 13.367 11.293 13.457 11.34 13.504 C 11.387 13.557 11.483 13.584 11.63 13.584 Z" transform="matrix(1, 0, 0, 1, 0, 0)" style="fill: rgb(51, 51, 51); white-space: pre;"/>
</svg>