<svg viewBox="0 0 24 24" style="width:24px;height:24px" xmlns="http://www.w3.org/2000/svg">
  <path fill="currentColor" d="M19,19H5V8H19M16,1V3H8V1H6V3H5C3.89,3 3,3.89 3,5V19A2,2 0 0,0 5,21H19A2,2 0 0,0 21,19V5C21,3.89 20.1,3 19,3H18V1"/>
  <path d="M 10.293 9.994 L 13.653 9.994 L 13.653 10.664 L 11.643 17.504 L 10.533 17.504 L 12.493 10.894 L 10.293 10.894 L 10.293 9.994 Z" transform="matrix(1, 0, 0, 1, 0, 0)" style="fill: rgb(51, 51, 51); white-space: pre;"/>
</svg>