<svg viewBox="0 0 24 24" style="width:24px;height:24px" xmlns="http://www.w3.org/2000/svg">
  <path fill="currentColor" d="M19,19H5V8H19M16,1V3H8V1H6V3H5C3.89,3 3,3.89 3,5V19A2,2 0 0,0 5,21H19A2,2 0 0,0 21,19V5C21,3.89 20.1,3 19,3H18V1"/>
  <path d="M 11.347 11.214 L 11.347 13.184 L 12.667 13.184 C 13.414 13.184 13.787 13.541 13.787 14.254 L 13.787 16.444 C 13.787 17.151 13.414 17.504 12.667 17.504 L 11.397 17.504 C 10.644 17.504 10.267 17.151 10.267 16.444 L 10.267 11.044 C 10.267 10.344 10.644 9.994 11.397 9.994 L 12.637 9.994 C 13.377 9.994 13.747 10.344 13.747 11.044 L 13.747 12.344 L 12.687 12.344 L 12.687 11.214 C 12.687 11.074 12.66 10.981 12.607 10.934 C 12.56 10.887 12.467 10.864 12.327 10.864 L 11.707 10.864 C 11.567 10.864 11.474 10.887 11.427 10.934 C 11.374 10.981 11.347 11.074 11.347 11.214 Z M 12.707 16.284 L 12.707 14.394 C 12.707 14.261 12.684 14.171 12.637 14.124 C 12.59 14.071 12.494 14.044 12.347 14.044 L 11.347 14.044 L 11.347 16.284 C 11.347 16.424 11.374 16.517 11.427 16.564 C 11.474 16.604 11.567 16.624 11.707 16.624 L 12.347 16.624 C 12.494 16.624 12.59 16.604 12.637 16.564 C 12.684 16.517 12.707 16.424 12.707 16.284 Z" transform="matrix(1, 0, 0, 1, 0, 0)" style="fill: rgb(51, 51, 51); white-space: pre;"/>
</svg>