<svg viewBox="0 0 24 24" style="width:24px;height:24px" xmlns="http://www.w3.org/2000/svg">
  <path fill="currentColor" d="M19,19H5V8H19M16,1V3H8V1H6V3H5C3.89,3 3,3.89 3,5V19A2,2 0 0,0 5,21H19A2,2 0 0,0 21,19V5C21,3.89 20.1,3 19,3H18V1"/>
  <path d="M 11.301 11.214 L 11.301 12.344 L 10.221 12.344 L 10.221 11.044 C 10.221 10.344 10.591 9.994 11.331 9.994 L 12.441 9.994 C 13.194 9.994 13.571 10.344 13.571 11.044 L 13.571 12.944 C 13.571 13.371 13.411 13.617 13.091 13.684 C 13.411 13.757 13.571 13.991 13.571 14.384 L 13.571 16.444 C 13.571 17.151 13.194 17.504 12.441 17.504 L 11.331 17.504 C 10.591 17.504 10.221 17.151 10.221 16.444 L 10.221 15.164 L 11.301 15.164 L 11.301 16.284 C 11.301 16.424 11.324 16.517 11.371 16.564 C 11.418 16.604 11.514 16.624 11.661 16.624 L 12.131 16.624 C 12.271 16.624 12.364 16.604 12.411 16.564 C 12.464 16.517 12.491 16.424 12.491 16.284 L 12.491 14.484 C 12.491 14.337 12.464 14.241 12.411 14.194 C 12.364 14.154 12.271 14.134 12.131 14.134 L 11.231 14.134 L 11.231 13.264 L 12.131 13.264 C 12.271 13.264 12.364 13.244 12.411 13.204 C 12.464 13.157 12.491 13.064 12.491 12.924 L 12.491 11.214 C 12.491 11.074 12.464 10.981 12.411 10.934 C 12.364 10.887 12.271 10.864 12.131 10.864 L 11.661 10.864 C 11.514 10.864 11.418 10.887 11.371 10.934 C 11.324 10.981 11.301 11.074 11.301 11.214 Z" transform="matrix(1, 0, 0, 1, 0, 0)" style="fill: rgb(51, 51, 51); white-space: pre;"/>
</svg>