<svg viewBox="0 0 24 24" style="width:24px;height:24px" xmlns="http://www.w3.org/2000/svg">
  <path fill="currentColor" d="M19,19H5V8H19M16,1V3H8V1H6V3H5C3.89,3 3,3.89 3,5V19A2,2 0 0,0 5,21H19A2,2 0 0,0 21,19V5C21,3.89 20.1,3 19,3H18V1"/>
  <path d="M 6.864 11.214 L 6.864 12.344 L 5.784 12.344 L 5.784 11.044 C 5.784 10.344 6.154 9.994 6.894 9.994 L 8.004 9.994 C 8.757 9.994 9.134 10.344 9.134 11.044 L 9.134 12.944 C 9.134 13.371 8.974 13.617 8.654 13.684 C 8.974 13.757 9.134 13.991 9.134 14.384 L 9.134 16.444 C 9.134 17.151 8.757 17.504 8.004 17.504 L 6.894 17.504 C 6.154 17.504 5.784 17.151 5.784 16.444 L 5.784 15.164 L 6.864 15.164 L 6.864 16.284 C 6.864 16.424 6.887 16.517 6.934 16.564 C 6.981 16.604 7.077 16.624 7.224 16.624 L 7.694 16.624 C 7.834 16.624 7.927 16.604 7.974 16.564 C 8.027 16.517 8.054 16.424 8.054 16.284 L 8.054 14.484 C 8.054 14.337 8.027 14.241 7.974 14.194 C 7.927 14.154 7.834 14.134 7.694 14.134 L 6.794 14.134 L 6.794 13.264 L 7.694 13.264 C 7.834 13.264 7.927 13.244 7.974 13.204 C 8.027 13.157 8.054 13.064 8.054 12.924 L 8.054 11.214 C 8.054 11.074 8.027 10.981 7.974 10.934 C 7.927 10.887 7.834 10.864 7.694 10.864 L 7.224 10.864 C 7.077 10.864 6.981 10.887 6.934 10.934 C 6.887 10.981 6.864 11.074 6.864 11.214 ZM 11.334 11.214 L 11.334 13.184 L 12.654 13.184 C 13.401 13.184 13.774 13.541 13.774 14.254 L 13.774 16.444 C 13.774 17.151 13.401 17.504 12.654 17.504 L 11.384 17.504 C 10.631 17.504 10.254 17.151 10.254 16.444 L 10.254 11.044 C 10.254 10.344 10.631 9.994 11.384 9.994 L 12.624 9.994 C 13.364 9.994 13.734 10.344 13.734 11.044 L 13.734 12.344 L 12.674 12.344 L 12.674 11.214 C 12.674 11.074 12.647 10.981 12.594 10.934 C 12.547 10.887 12.454 10.864 12.314 10.864 L 11.694 10.864 C 11.554 10.864 11.461 10.887 11.414 10.934 C 11.361 10.981 11.334 11.074 11.334 11.214 Z M 12.694 16.284 L 12.694 14.394 C 12.694 14.261 12.671 14.171 12.624 14.124 C 12.577 14.071 12.481 14.044 12.334 14.044 L 11.334 14.044 L 11.334 16.284 C 11.334 16.424 11.361 16.517 11.414 16.564 C 11.461 16.604 11.554 16.624 11.694 16.624 L 12.334 16.624 C 12.481 16.624 12.577 16.604 12.624 16.564 C 12.671 16.517 12.694 16.424 12.694 16.284 ZM 15.858 10.864 L 15.858 12.814 L 17.028 12.814 C 17.781 12.814 18.158 13.164 18.158 13.864 L 18.158 16.444 C 18.158 17.151 17.781 17.504 17.028 17.504 L 15.878 17.504 C 15.131 17.504 14.758 17.151 14.758 16.444 L 14.758 15.114 L 15.848 15.114 L 15.848 16.284 C 15.848 16.424 15.871 16.517 15.918 16.564 C 15.971 16.604 16.068 16.624 16.208 16.624 L 16.698 16.624 C 16.845 16.624 16.941 16.604 16.988 16.564 C 17.035 16.517 17.058 16.424 17.058 16.284 L 17.058 14.034 C 17.058 13.894 17.035 13.797 16.988 13.744 C 16.941 13.697 16.845 13.674 16.698 13.674 L 14.778 13.674 L 14.778 9.994 L 18.128 9.994 L 18.128 10.864 L 15.858 10.864 Z" transform="matrix(1, 0, 0, 1, 0, 0)" style="fill: rgb(51, 51, 51); white-space: pre;"/>
</svg>