<?xml version="1.0" encoding="utf-8"?>
<svg viewBox="0 0 24 24" style="width:24px;height:24px" xmlns="http://www.w3.org/2000/svg">
  <path fill="currentColor" d="M 12 20 C 14.209 20 16 18.209 16 16 C 16 13.791 14.209 12 12 12 C 9.791 12 8 13.791 8 16 C 8 18.209 9.791 20 12 20 M 12 10 C 16.42 10 20 8.21 20 6 L 20 4 L 4 4 L 4 6 C 4 8.21 7.58 10 12 10 Z" transform="matrix(0, -1, 1, 0, 0, 24)"/>
</svg>